{
    "registryName": "Community Image Repository",
    "appliances": {
        "freebsd-14-ten64": {
                "path": "https://archive.traverse.com.au/pub/ports/freebsd/",
                "file": "freebsd-appliance.json",
                "override_env": "FREEBSD_DPAA2_PATH"
        },
        "ipfire": {
                "path": "https://archive.traverse.com.au/pub/ports/ipfire/",
                "file": "ipfire-appliance.json",
                "override_env": "IPFIRE_PATH"
        }
    }
}