[
    {
        "type": "au.com.traverse.registry.distributions.UbuntuDistribution",
        "ubuntuBaseURL": "https://cloud-images.ubuntu.com/releases/streams/v1/com.ubuntu.cloud:released:download.json",
        "releasesToPublish": {
            "com.ubuntu.cloud:server:20.04:arm64": {
            },
            "com.ubuntu.cloud:server:22.04:arm64": {
            },
            "com.ubuntu.cloud:server:23.10:arm64": {
            }
        },
        "state": {
            "etag": "d0eb97-5fdbcb93cc5c0-gzip"
        }
    },
    {
        "type": "au.com.traverse.registry.distributions.OpenSUSEDistribution",
        "fileNameSelector": "main.container > table > tbody > tr > td > a",
        "releasesToPublish": {
            "opensuse-tumbleweed-jeos": {
                "url": "https://download.opensuse.org/ports/aarch64/factory/appliances/",
                "basename": "openSUSE-Tumbleweed-ARM-JeOS-efi.aarch64.raw.xz",
                "format": "raw-xz",
                "friendlyName": "Tumbleweed",
                "moreInfoURL": "https://get.opensuse.org/tumbleweed/",
                "flavourName": "JeOS"
            },
            "opensuse-leap-15.4-jeos": {
                "url": "https://download.opensuse.org/distribution/leap/15.4/appliances/",
                "basename": "openSUSE-Leap-15.4-ARM-JeOS-efi.aarch64.raw.xz",
                "format": "raw-xz",
                "friendlyName": "Leap 15.4",
                "moreInfoURL": "https://get.opensuse.org/leap/",
                "flavourName": "JeOS"
            },
            "opensuse-leap-15.5-jeos": {
                "url": "https://download.opensuse.org/distribution/leap/15.5/appliances/",
                "basename": "openSUSE-Leap-15.5-ARM-JeOS-efi.aarch64.raw.xz",
                "format": "raw-xz",
                "friendlyName": "Leap 15.5",
                "moreInfoURL": "https://get.opensuse.org/leap/",
                "flavourName": "JeOS"
            },
            "opensuse-leap-15.5-jeos-vm": {
                "url": "https://download.opensuse.org/distribution/leap/15.5/appliances/",
                "basename": "openSUSE-Leap-15.5-ARM-JeOS-efi.aarch64.qcow2",
                "format": "qcow2",
                "friendlyName": "Leap 15.5 virtual machine optimized",
                "moreInfoURL": "https://get.opensuse.org/leap/",
                "flavourName": "JeOS",
                "cloudinit": true
            },
            "opensuse-tumbleweed-microos-vm": {
                "url": "https://download.opensuse.org/ports/aarch64/tumbleweed/appliances/",
                "basename": "openSUSE-MicroOS.aarch64-ContainerHost-kvm-and-xen.qcow2",
                "format": "qcow2",
                "friendlyName": "Tumbleweed KVM image",
                "moreInfoURL": "https://microos.opensuse.org/",
                "flavourName": "MicroOS",
                "mindisk": 21540,
                "versionVariant": "ContainerHost-kvm-and-xen"
            },
            "opensuse-leap-micro-5.5": {
                "url": "https://download.opensuse.org/distribution/leap-micro/5.5/appliances/",
                "basename": "openSUSE-Leap-Micro.aarch64-Default.raw.xz",
                "format": "raw-xz",
                "friendlyName": "Leap Micro 5.5",
                "moreInfoURL": "https://get.opensuse.org/leapmicro/5.5/",
                "flavourName": "Leap-Micro",
                "mindisk": 21540,
                "versionVariant": "Default"
            }
        }
    },
    {
        "type": "au.com.traverse.registry.distributions.DebianDistribution",
        "fileNameSelector": "table > tbody > tr > td.indexcolname > a",
        "releasesToPublish": {
            "oldstable": {
                "url": "https://cloud.debian.org/images/cloud/bullseye/",
                "codename": "bullseye",
                "versionNum": 11,
                "currentRelease": true
            },
            "stable": {
                "url": "https://cloud.debian.org/images/cloud/bookworm/",
                "codename": "bookworm",
                "versionNum": 12,
                "currentRelease": false
            },
            "unstable": {
                "url": "https://cloud.debian.org/images/cloud/sid/",
                "codename": "sid",
                "currentRelease": false
            }
        }
    },
    {
        "type": "au.com.traverse.registry.distributions.FedoraDistribution",
        "releasesToPublish": [
            40
        ]
    },
    {
        "type": "au.com.traverse.registry.distributions.CentOSDistribution",
        "fileNameSelector": "#indexlist > tbody > tr > td.indexcolname > a",
        "releasesToPublish": {
            "centos-8": {
                "url": "https://cloud.centos.org/centos/8/aarch64/images/",
                "regex": "CentOS-(\\d)-GenericCloud-(\\d\\.\\d)\\.(\\d{4})-(\\d{8})\\.\\d\\.aarch64.qcow2",
                "buildNumGroup": 3,
                "friendlyName": "CentOS 8",
                "moreInfoURL": "https://www.centos.org/centos-linux/"
            },
            "centos-8-stream": {
                "url": "https://cloud.centos.org/centos/8-stream/aarch64/images/",
                "regex": "CentOS-Stream-GenericCloud-\\d-([\\d]{8})\\.\\d\\.aarch64.qcow2",
                "buildNumGroup": 1,
                "friendlyName": "CentOS Stream 8",
                "moreInfoURL": "https://www.centos.org/centos-stream/"
            }
        },
        "state": {
        }
    },
    {
        "type": "au.com.traverse.registry.distributions.FreeBSD",
        "fileNameSelector": "#list > tbody > tr > td.link > a",
        "releasesToPublish": {
            "14": {
                "url": "https://download.freebsd.org/ftp/releases/VM-IMAGES/14.1-RELEASE/aarch64/Latest/",
                "filename": "FreeBSD-14.1-RELEASE-arm64-aarch64.raw.xz"
            }
        }
    },
    {
        "type": "au.com.traverse.registry.distributions.RockstorDistribution",
        "releasesToPublish": {
            "rockstor": {
                "url": "https://rockstor.com/downloads/installer/leap/15.6/aarch64/Rockstor-Leap15.6-ARM64EFI.aarch64-5.0.15-0.qcow2",
                "checksum": "https://rockstor.com/downloads/installer/leap/15.6/aarch64/Rockstor-Leap15.6-ARM64EFI.aarch64-5.0.15-0.qcow2.sha256",
                "version": "5.0.15-0",
                "link": "https://rockstor.com/dls.html"
            }
        }
    },
    {
        "type": "au.com.traverse.registry.distributions.HomeAssistantOSDistribution",
        "imageNamePattern": "haos_generic-aarch64-([\\w.]+).qcow2.xz",
        "lastReleaseURL": "https://api.github.com/repos/home-assistant/operating-system/releases/126328608",
        "lastReleaseSHA256": "50214bc3c877aeaecdc995bc286fb1e7ae3ad493dc0581f169cee8d879e7e55c"
    }
]