{
    "registryName": "traverse-manipulator-registry",
    "manipulators": [
        {
            "id": "ten64-apt-manipulator",
            "appliances": [
                "ubuntu-%D+",
                "debian%-stable",
                "debian%-testing",
                "debian%-unstable"
            ],
            "description": "Installs kernel modules and sets correct boot options for Debian and Ubuntu on Ten64",
            "hardware": [
                "traverse,ten64"
            ],
            "author": "Traverse Technologies",
            "file": "apt/apt-manipulator.lua",
            "fixup": true,
            "provisioner": true
        },
        {
            "id": "ten64-redhat-manipulator",
            "appliances": [
                "fedora-%w+"
            ],
            "description": "Performs steps required to get Red Hat style distributions booting on Ten64",
            "hardware": [
                "traverse,ten64"
            ],
            "author": "Traverse Technologies",
            "file": "redhat/fedora-manipulator.lua",
            "fixup": true,
            "provisioner": true
        }
    ]
}